{
  "points": [
    {
      "date": "2020-09-08",
      "value": -2.5
    },
    {
      "date": "2020-09-09",
      "value": -2
    },
    {
      "date": "2020-09-10",
      "value": 5
    },
    {
      "date": "2020-09-11",
      "value": -1
    },
    {
      "date": "2020-09-14",
      "value": -3
    },
    {
      "date": "2020-09-15",
      "value": -3
    },
    {
      "date": "2020-09-16",
      "value": 4
    },
    {
      "date": "2020-09-17",
      "value": -4
    },
    {
      "date": "2020-09-18",
      "value": -5
    },
    {
      "date": "2020-09-21",
      "value": -1
    },
    {
      "date": "2020-09-22",
      "value": 3
    },
    {
      "date": "2020-09-23",
      "value": 3
    },
    {
      "date": "2020-09-24",
      "value": 5
    },
    {
      "date": "2020-09-25",
      "value": 3
    },
    {
      "date": "2020-09-28",
      "value": 0
    },
    {
      "date": "2020-09-29",
      "value": -2
    },
    {
      "date": "2020-09-30",
      "value": 0
    },
    {
      "date": "2020-10-01",
      "value": 3
    },
    {
      "date": "2020-10-02",
      "value": 4
    },
    {
      "date": "2020-10-05",
      "value": -2
    }
  ],
  "prices": [
    {
      "date": "2020-09-08",
      "open": 3420.5,
      "high": 3447,
      "low": 3327.5,
      "close": 3335.5
    },
    {
      "date": "2020-09-09",
      "open": 3315.25,
      "high": 3424,
      "low": 3295.5,
      "close": 3400.25
    },
    {
      "date": "2020-09-10",
      "open": 3396,
      "high": 3424.25,
      "low": 3327.25,
      "close": 3340.5
    },
    {
      "date": "2020-09-11",
      "open": 3345.25,
      "high": 3375,
      "low": 3308.75,
      "close": 3333.75
    },
    {
      "date": "2020-09-14",
      "open": 3350,
      "high": 3402.75,
      "low": 3345.5,
      "close": 3382.5
    },
    {
      "date": "2020-09-15",
      "open": 3379.5,
      "high": 3419,
      "low": 3376,
      "close": 3405.25
    },
    {
      "date": "2020-09-16",
      "open": 3405,
      "high": 3429.75,
      "low": 3384,
      "close": 3389.5
    },
    {
      "date": "2020-09-17",
      "open": 3392.75,
      "high": 3396.5,
      "low": 3320.5,
      "close": 3361.5
    },
    {
      "date": "2020-09-18",
      "open": 3355.75,
      "high": 3374.25,
      "low": 3341.75,
      "close": 3353.6
    },
    {
      "date": "2020-09-21",
      "open": 3314.5,
      "high": 3326.25,
      "low": 3217.75,
      "close": 3275
    },
    {
      "date": "2020-09-22",
      "open": 3271.5,
      "high": 3309.5,
      "low": 3256.5,
      "close": 3299.25
    },
    {
      "date": "2020-09-23",
      "open": 3303.75,
      "high": 3319.75,
      "low": 3221,
      "close": 3231.25
    },
    {
      "date": "2020-09-24",
      "open": 3228,
      "high": 3268.25,
      "low": 3198,
      "close": 3238
    },
    {
      "date": "2020-09-25",
      "open": 3243.5,
      "high": 3296.25,
      "low": 3206.5,
      "close": 3287.25
    },
    {
      "date": "2020-09-28",
      "open": 3291,
      "high": 3351.25,
      "low": 3287.5,
      "close": 3346
    },
    {
      "date": "2020-09-29",
      "open": 3348.75,
      "high": 3363,
      "low": 3316.5,
      "close": 3333.75
    },
    {
      "date": "2020-09-30",
      "open": 3330,
      "high": 3384,
      "low": 3291.25,
      "close": 3352
    },
    {
      "date": "2020-10-01",
      "open": 3344.75,
      "high": 3388,
      "low": 3343.25,
      "close": 3367.75
    },
    {
      "date": "2020-10-02",
      "open": 3367,
      "high": 3375.5,
      "low": 3300.25,
      "close": 3339.25
    },
    {
      "date": "2020-10-05",
      "open": 3360,
      "high": 3400,
      "low": 3346.5,
      "close": 3393
    }
  ]
}
